summaryarticle
…
make_prop_table(data_ee$economic_capicity_L13_1_SM_LESS_GOODS)

# A tibble: 24 × 3
   Category                                                        Count Percent
   <chr>                                                           <dbl> <table>
 1 difficulty_finding_work                                             2  2.74  
 2 difficulty_finding_work housing_education_expenses                  4  5.48  
 3 difficulty_finding_work increased_expenses                          2  2.74  
 4 difficulty_finding_work increased_expenses housing_education_e…     1  1.37  
 5 difficulty_finding_work reduced_income                              1  1.37  
 6 housing_education_expenses                                         10 13.70  
 7 housing_education_expenses no_financial_assistance                  1  1.37  
 8 housing_education_expenses other                                    7  9.59  
 9 increased_debt                                                      1  1.37  
10 increased_expenses                                                  6  8.22  
# ℹ 14 more rows
…
